<svg xmlns="http://www.w3.org/2000/svg" width="36.979" height="47.493" viewBox="0 0 36.979 47.493">
  <g id="Group_28988" data-name="Group 28988" transform="translate(679.065 -1495.5) rotate(90)">
    <line id="Line_11933" data-name="Line 11933" x1="45.027" transform="translate(1496.5 660.575)" fill="none" stroke="#fff" stroke-linecap="round" stroke-width="2"/>
    <line id="Line_11934" data-name="Line 11934" x1="17.024" y2="17.075" transform="translate(1524.503 660.575)" fill="none" stroke="#fff" stroke-linecap="round" stroke-width="2"/>
    <line id="Line_11935" data-name="Line 11935" x1="17.075" y1="17.075" transform="translate(1524.503 643.5)" fill="none" stroke="#fff" stroke-linecap="round" stroke-width="2"/>
  </g>
</svg>
